;This file is generated from the Spreadsheet MTW2-Advice.xls
;Please modify the spreadsheet and re-xport the data, rather than editing this file directly

;===============================================================
;== PROLOGUE ADVICE THREAD DATA STARTS HERE ==
;===============================================================

;------------------------------------------
AdviceThread Prologue_Welcome_First_Turn_1_Thread
    GameArea Campaign

    Item Prologue_Welcome_First_Turn_1_Text_01
        Uninhibitable
        Verbosity  1 
        Priority  6 
        Threshold  1 
        MaxRepeats  0 
        RepeatInterval  1 
        Attitude Normal
        Presentation Default
        Title Prologue_Welcome_First_Turn_1_Text_01_Title
        Text Prologue_Welcome_First_Turn_1_Text_01_Text1



;------------------------------------------
AdviceThread Prologue_Welcome_First_Turn_3_Thread
    GameArea Campaign

    Item Prologue_Welcome_First_Turn_3_Text_01
        Uninhibitable
        Verbosity  1 
        Priority  6 
        Threshold  1 
        MaxRepeats  0 
        RepeatInterval  1 
        Attitude Normal
        Presentation Default
        Title Prologue_Welcome_First_Turn_3_Text_01_Title
        Text Prologue_Welcome_First_Turn_3_Text_01_Text1



;------------------------------------------
AdviceThread Prologue_Welcome_First_Turn_4_Thread
    GameArea Campaign

    Item Prologue_Welcome_First_Turn_4_Text_01
        Uninhibitable
        Verbosity  1 
        Priority  6 
        Threshold  1 
        MaxRepeats  0 
        RepeatInterval  1 
        Attitude Normal
        Presentation Default
        Title Prologue_Welcome_First_Turn_4_Text_01_Title
        Text Prologue_Welcome_First_Turn_4_Text_01_Text1



;------------------------------------------
AdviceThread Prologue_Welcome_First_Turn_5_Thread
    GameArea Campaign

    Item Prologue_Welcome_First_Turn_5_Text_01
        Uninhibitable
        Verbosity  1 
        Priority  6 
        Threshold  1 
        MaxRepeats  0 
        RepeatInterval  1 
        Attitude Normal
        Presentation Default
        Title Prologue_Welcome_First_Turn_5_Text_01_Title
        Text Prologue_Welcome_First_Turn_5_Text_01_Text1



;------------------------------------------
AdviceThread Prologue_This_is_Rufus_Thread
    GameArea Campaign

    Item Prologue_This_is_Rufus_Text_01
        Uninhibitable
        Verbosity  1 
        Priority  6 
        Threshold  1 
        MaxRepeats  0 
        RepeatInterval  1 
        Attitude Normal
        Presentation Default
        Title Prologue_This_is_Rufus_Text_01_Title
        Text Prologue_This_is_Rufus_Text_01_Text1



;------------------------------------------
AdviceThread Prologue_Moving_Armies_Thread
    GameArea Campaign

    Item Prologue_Moving_Armies_Text_01
        Uninhibitable
        Verbosity  1 
        Priority  6 
        Threshold  1 
        MaxRepeats  0 
        RepeatInterval  1 
        Attitude Normal
        Presentation Default
        Title Prologue_Moving_Armies_Text_01_Title
        Text Prologue_Moving_Armies_Text_01_Text1



;------------------------------------------
AdviceThread Prologue_Campaign_HUD_Thread
    GameArea Campaign

    Item Prologue_Campaign_HUD_Text_01
        Uninhibitable
        Verbosity  1 
        Priority  6 
        Threshold  1 
        MaxRepeats  0 
        RepeatInterval  1 
        Attitude Normal
        Presentation Default
        Title Prologue_Campaign_HUD_Text_01_Title
        Text Prologue_Campaign_HUD_Text_01_Text1



;------------------------------------------
AdviceThread Prologue_Rufus_Army_Basics_Thread
    GameArea Campaign

    Item Prologue_Rufus_Army_Basics_Text_01
        Uninhibitable
        Verbosity  1 
        Priority  6 
        Threshold  1 
        MaxRepeats  0 
        RepeatInterval  1 
        Attitude Normal
        Presentation Default
        Title Prologue_Rufus_Army_Basics_Text_01_Title
        Text Prologue_Rufus_Army_Basics_Text_01_Text1



;------------------------------------------
AdviceThread Prologue_Rufus_Scroll_Basics_Thread
    GameArea Campaign

    Item Prologue_Rufus_Scroll_Basics_Text_01
        Uninhibitable
        Verbosity  1 
        Priority  6 
        Threshold  1 
        MaxRepeats  0 
        RepeatInterval  1 
        Attitude Normal
        Presentation Default
        Title Prologue_Rufus_Scroll_Basics_Text_01_Title
        Text Prologue_Rufus_Scroll_Basics_Text_01_Text1



;------------------------------------------
AdviceThread Prologue_New_Turn_Thread
    GameArea Campaign

    Item Prologue_New_Turn_Text_01
        Uninhibitable
        Verbosity  1 
        Priority  6 
        Threshold  1 
        MaxRepeats  0 
        RepeatInterval  1 
        Attitude Normal
        Presentation Default
        Title Prologue_New_Turn_Text_01_Title
        Text Prologue_New_Turn_Text_01_Text1



;------------------------------------------
AdviceThread Prologue_Event_Message_Thread
    GameArea Campaign

    Item Prologue_Event_Message_Text_01
        Uninhibitable
        Verbosity  1 
        Priority  6 
        Threshold  1 
        MaxRepeats  0 
        RepeatInterval  1 
        Attitude Normal
        Presentation Default
        Title Prologue_Event_Message_Text_01_Title
        Text Prologue_Event_Message_Text_01_Text1



;------------------------------------------
AdviceThread Prologue_Rebels_Near_Caen_Thread
    GameArea Campaign

    Item Prologue_Rebels_Near_Caen_Text_01
        Uninhibitable
        Verbosity  1 
        Priority  6 
        Threshold  1 
        MaxRepeats  0 
        RepeatInterval  1 
        Attitude Concerned
        Presentation Default
        Title Prologue_Rebels_Near_Caen_Text_01_Title
        Text Prologue_Rebels_Near_Caen_Text_01_Text1



;------------------------------------------
AdviceThread Prologue_Fortify_Caen_Thread
    GameArea Campaign

    Item Prologue_Fortify_Caen_Text_01
        Uninhibitable
        Verbosity  1 
        Priority  6 
        Threshold  1 
        MaxRepeats  0 
        RepeatInterval  1 
        Attitude Normal
        Presentation Default
        Title Prologue_Fortify_Caen_Text_01_Title
        Text Prologue_Fortify_Caen_Text_01_Text1



;------------------------------------------
AdviceThread Prologue_Board_the_Fleet_Thread
    GameArea Campaign

    Item Prologue_Board_the_Fleet_Text_01
        Uninhibitable
        Verbosity  1 
        Priority  6 
        Threshold  1 
        MaxRepeats  0 
        RepeatInterval  1 
        Attitude Normal
        Presentation Default
        Title Prologue_Board_the_Fleet_Text_01_Title
        Text Prologue_Board_the_Fleet_Text_01_Text1



;------------------------------------------
AdviceThread Prologue_Fleet_Basics_Thread
    GameArea Campaign

    Item Prologue_Fleet_Basics_Text_01
        Uninhibitable
        Verbosity  1 
        Priority  6 
        Threshold  1 
        MaxRepeats  0 
        RepeatInterval  1 
        Attitude Normal
        Presentation Default
        Title Prologue_Fleet_Basics_Text_01_Title
        Text Prologue_Fleet_Basics_Text_01_Text1



;------------------------------------------
AdviceThread Prologue_Fleet_Movement_Thread
    GameArea Campaign

    Item Prologue_Fleet_Movement_Text_01
        Uninhibitable
        Verbosity  1 
        Priority  6 
        Threshold  1 
        MaxRepeats  0 
        RepeatInterval  1 
        Attitude Normal
        Presentation Default
        Title Prologue_Fleet_Movement_Text_01_Title
        Text Prologue_Fleet_Movement_Text_01_Text1



;------------------------------------------
AdviceThread Prologue_Move_Army_Into_Normandy_Thread
    GameArea Campaign

    Item Prologue_Move_Army_Into_Normandy_Text_01
        Uninhibitable
        Verbosity  1 
        Priority  6 
        Threshold  1 
        MaxRepeats  0 
        RepeatInterval  1 
        Attitude Normal
        Presentation Default
        Title Prologue_Move_Army_Into_Normandy_Text_01_Title
        Text Prologue_Move_Army_Into_Normandy_Text_01_Text1



;------------------------------------------
AdviceThread Prologue_Take_England_Thread
    GameArea Campaign

    Item Prologue_Take_England_Text_01
        Uninhibitable
        Verbosity  1 
        Priority  6 
        Threshold  1 
        MaxRepeats  0 
        RepeatInterval  1 
        Attitude Normal
        Presentation Default
        Title Prologue_Take_England_Text_01_Title
        Text Prologue_Take_England_Text_01_Text1



;------------------------------------------
AdviceThread Prologue_Pre_Siege_Window_Thread
    GameArea Campaign

    Item Prologue_Pre_Siege_Window_Text_01
        Uninhibitable
        Verbosity  1 
        Priority  6 
        Threshold  1 
        MaxRepeats  0 
        RepeatInterval  1 
        Attitude Normal
        Presentation Default
        Title Prologue_Pre_Siege_Window_Text_01_Title
        Text Prologue_Pre_Siege_Window_Text_01_Text1



;------------------------------------------
AdviceThread Prologue_End_Turn_2_Thread
    GameArea Campaign

    Item Prologue_End_Turn_2_Text_01
        Uninhibitable
        Verbosity  1 
        Priority  6 
        Threshold  1 
        MaxRepeats  0 
        RepeatInterval  1 
        Attitude Normal
        Presentation Default
        Title Prologue_End_Turn_2_Text_01_Title
        Text Prologue_End_Turn_2_Text_01_Text1



;------------------------------------------
AdviceThread Prologue_Ready_To_Siege_Thread
    GameArea Campaign

    Item Prologue_Ready_To_Siege_Text_01
        Uninhibitable
        Verbosity  1 
        Priority  6 
        Threshold  1 
        MaxRepeats  0 
        RepeatInterval  1 
        Attitude Normal
        Presentation Default
        Title Prologue_Ready_To_Siege_Text_01_Title
        Text Prologue_Ready_To_Siege_Text_01_Text1



;------------------------------------------
AdviceThread Prologue_Prebattle_Thread
    GameArea Campaign

    Item Prologue_Prebattle_Text_01
        Uninhibitable
        Verbosity  1 
        Priority  6 
        Threshold  1 
        MaxRepeats  0 
        RepeatInterval  1 
        Attitude Normal
        Presentation Default
        Title Prologue_Prebattle_Text_01_Title
        Text Prologue_Prebattle_Text_01_Text1



;------------------------------------------
AdviceThread Prologue_Capturing_a_Settlement_Thread
    GameArea Campaign

    Item Prologue_Capturing_a_Settlement_Text_01
        Uninhibitable
        Verbosity  1 
        Priority  6 
        Threshold  1 
        MaxRepeats  0 
        RepeatInterval  1 
        Attitude Normal
        Presentation Default
        Title Prologue_Capturing_a_Settlement_Text_01_Title
        Text Prologue_Capturing_a_Settlement_Text_01_Text1



;------------------------------------------
AdviceThread Prologue_London_Captured_Thread
    GameArea Campaign

    Item Prologue_London_Captured_Text_01
        Uninhibitable
        Verbosity  1 
        Priority  6 
        Threshold  1 
        MaxRepeats  0 
        RepeatInterval  1 
        Attitude Excited
        Presentation Default
        Title Prologue_London_Captured_Text_01_Title
        Text Prologue_London_Captured_Text_01_Text1



;------------------------------------------
AdviceThread Prologue_Settlement_Basics_Thread
    GameArea Campaign

    Item Prologue_Settlement_Basics_Text_01
        Uninhibitable
        Verbosity  1 
        Priority  6 
        Threshold  1 
        MaxRepeats  0 
        RepeatInterval  1 
        Attitude Normal
        Presentation Default
        Title Prologue_Settlement_Basics_Text_01_Title
        Text Prologue_Settlement_Basics_Text_01_Text1



;------------------------------------------
AdviceThread Prologue_Church_In_Queue_Thread
    GameArea Campaign

    Item Prologue_Church_In_Queue_Text_01
        Uninhibitable
        Verbosity  1 
        Priority  6 
        Threshold  1 
        MaxRepeats  0 
        RepeatInterval  1 
        Attitude Normal
        Presentation Default
        Title Prologue_Church_In_Queue_Text_01_Title
        Text Prologue_Church_In_Queue_Text_01_Text1



;------------------------------------------
AdviceThread Prologue_City_Basics_Thread
    GameArea Campaign

    Item Prologue_City_Basics_Text_01
        Uninhibitable
        Verbosity  1 
        Priority  6 
        Threshold  1 
        MaxRepeats  0 
        RepeatInterval  1 
        Attitude Normal
        Presentation Default
        Title Prologue_City_Basics_Text_01_Title
        Text Prologue_City_Basics_Text_01_Text1



;------------------------------------------
AdviceThread Prologue_City_Details_Thread
    GameArea Campaign

    Item Prologue_City_Details_Text_01
        Uninhibitable
        Verbosity  1 
        Priority  6 
        Threshold  1 
        MaxRepeats  0 
        RepeatInterval  1 
        Attitude Normal
        Presentation Default
        Title Prologue_City_Details_Text_01_Title
        Text Prologue_City_Details_Text_01_Text1



;------------------------------------------
AdviceThread Prologue_End_Turn_3_Thread
    GameArea Campaign

    Item Prologue_End_Turn_3_Text_01
        Uninhibitable
        Verbosity  1 
        Priority  6 
        Threshold  1 
        MaxRepeats  0 
        RepeatInterval  1 
        Attitude Normal
        Presentation Default
        Title Prologue_End_Turn_3_Text_01_Title
        Text Prologue_End_Turn_3_Text_01_Text1



;------------------------------------------
AdviceThread Prologue_New_Mission_Thread
    GameArea Campaign

    Item Prologue_New_Mission_Text_01
        Uninhibitable
        Verbosity  1 
        Priority  6 
        Threshold  1 
        MaxRepeats  0 
        RepeatInterval  1 
        Attitude Normal
        Presentation Default
        Title Prologue_New_Mission_Text_01_Title
        Text Prologue_New_Mission_Text_01_Text1



;------------------------------------------
AdviceThread Prologue_Build_Church_Thread
    GameArea Campaign

    Item Prologue_Build_Church_Text_01
        Uninhibitable
        Verbosity  1 
        Priority  6 
        Threshold  1 
        MaxRepeats  0 
        RepeatInterval  1 
        Attitude Normal
        Presentation Default
        Title Prologue_Build_Church_Text_01_Title
        Text Prologue_Build_Church_Text_01_Text1



;------------------------------------------
AdviceThread Prologue_Build_Church_Completed_Thread
    GameArea Campaign

    Item Prologue_Build_Church_Completed_Text_01
        Uninhibitable
        Verbosity  1 
        Priority  6 
        Threshold  1 
        MaxRepeats  0 
        RepeatInterval  1 
        Attitude Normal
        Presentation Default
        Title Prologue_Build_Church_Completed_Text_01_Title
        Text Prologue_Build_Church_Completed_Text_01_Text1



;------------------------------------------
AdviceThread Prologue_Recruitment_Basics_Thread
    GameArea Campaign

    Item Prologue_Recruitment_Basics_Text_01
        Uninhibitable
        Verbosity  1 
        Priority  6 
        Threshold  1 
        MaxRepeats  0 
        RepeatInterval  1 
        Attitude Normal
        Presentation Default
        Title Prologue_Recruitment_Basics_Text_01_Title
        Text Prologue_Recruitment_Basics_Text_01_Text1



;------------------------------------------
AdviceThread Prologue_Recruitment_Basics_2_Thread
    GameArea Campaign

    Item Prologue_Recruitment_Basics_2_Text_01
        Uninhibitable
        Verbosity  1 
        Priority  6 
        Threshold  1 
        MaxRepeats  0 
        RepeatInterval  1 
        Attitude Normal
        Presentation Default
        Title Prologue_Recruitment_Basics_2_Text_01_Title
        Text Prologue_Recruitment_Basics_2_Text_01_Text1



;------------------------------------------
AdviceThread Prologue_Retrain_Units_Thread
    GameArea Campaign

    Item Prologue_Retrain_Units_Text_01
        Uninhibitable
        Verbosity  1 
        Priority  6 
        Threshold  1 
        MaxRepeats  0 
        RepeatInterval  1 
        Attitude Normal
        Presentation Default
        Title Prologue_Retrain_Units_Text_01_Title
        Text Prologue_Retrain_Units_Text_01_Text1



;------------------------------------------
AdviceThread Prologue_Recruit_Units_London_Thread
    GameArea Campaign

    Item Prologue_Recruit_Units_London_Text_01
        Uninhibitable
        Verbosity  1 
        Priority  6 
        Threshold  1 
        MaxRepeats  0 
        RepeatInterval  1 
        Attitude Normal
        Presentation Default
        Title Prologue_Recruit_Units_London_Text_01_Title
        Text Prologue_Recruit_Units_London_Text_01_Text1



;------------------------------------------
AdviceThread Prologue_Move_Out_Of_London_Thread
    GameArea Campaign

    Item Prologue_Move_Out_Of_London_Text_01
        Uninhibitable
        Verbosity  1 
        Priority  6 
        Threshold  1 
        MaxRepeats  0 
        RepeatInterval  1 
        Attitude Normal
        Presentation Default
        Title Prologue_Move_Out_Of_London_Text_01_Title
        Text Prologue_Move_Out_Of_London_Text_01_Text1



;------------------------------------------
AdviceThread Prologue_Move_Out_Of_London_2_Thread
    GameArea Campaign

    Item Prologue_Move_Out_Of_London_2_Text_01
        Uninhibitable
        Verbosity  1 
        Priority  6 
        Threshold  1 
        MaxRepeats  0 
        RepeatInterval  1 
        Attitude Normal
        Presentation Default
        Title Prologue_Move_Out_Of_London_2_Text_01_Title
        Text Prologue_Move_Out_Of_London_2_Text_01_Text1



;------------------------------------------
AdviceThread Prologue_Pre_Siege_Nottingham_Thread
    GameArea Campaign

    Item Prologue_Pre_Siege_Nottingham_Text_01
        Uninhibitable
        Verbosity  1 
        Priority  6 
        Threshold  1 
        MaxRepeats  0 
        RepeatInterval  1 
        Attitude Normal
        Presentation Default
        Title Prologue_Pre_Siege_Nottingham_Text_01_Title
        Text Prologue_Pre_Siege_Nottingham_Text_01_Text1



;------------------------------------------
AdviceThread Prologue_Agent_Basics_Thread
    GameArea Campaign

    Item Prologue_Agent_Basics_Text_01
        Uninhibitable
        Verbosity  1 
        Priority  6 
        Threshold  1 
        MaxRepeats  0 
        RepeatInterval  1 
        Attitude Normal
        Presentation Default
        Title Prologue_Agent_Basics_Text_01_Title
        Text Prologue_Agent_Basics_Text_01_Text1



;------------------------------------------
AdviceThread Prologue_Assassin_Basics_Thread
    GameArea Campaign

    Item Prologue_Assassin_Basics_Text_01
        Uninhibitable
        Verbosity  1 
        Priority  6 
        Threshold  1 
        MaxRepeats  0 
        RepeatInterval  1 
        Attitude Normal
        Presentation Default
        Title Prologue_Assassin_Basics_Text_01_Title
        Text Prologue_Assassin_Basics_Text_01_Text1



;------------------------------------------
AdviceThread Prologue_Assassination_Basics_Thread
    GameArea Campaign

    Item Prologue_Assassination_Basics_Text_01
        Uninhibitable
        Verbosity  1 
        Priority  6 
        Threshold  1 
        MaxRepeats  0 
        RepeatInterval  1 
        Attitude Normal
        Presentation Default
        Title Prologue_Assassination_Basics_Text_01_Title
        Text Prologue_Assassination_Basics_Text_01_Text1



;------------------------------------------
AdviceThread Prologue_Assassination_Success_Thread
    GameArea Campaign

    Item Prologue_Assassination_Success_Text_01
        Uninhibitable
        Verbosity  1 
        Priority  6 
        Threshold  1 
        MaxRepeats  0 
        RepeatInterval  1 
        Attitude Excited
        Presentation Default
        Title Prologue_Assassination_Success_Text_01_Title
        Text Prologue_Assassination_Success_Text_01_Text1



;------------------------------------------
AdviceThread Prologue_Assassination_Failed_Thread
    GameArea Campaign

    Item Prologue_Assassination_Failed_Text_01
        Uninhibitable
        Verbosity  1 
        Priority  6 
        Threshold  1 
        MaxRepeats  0 
        RepeatInterval  1 
        Attitude Normal
        Presentation Default
        Title Prologue_Assassination_Failed_Text_01_Title
        Text Prologue_Assassination_Failed_Text_01_Text1



;------------------------------------------
AdviceThread Prologue_End_Turn_4_Thread
    GameArea Campaign

    Item Prologue_End_Turn_4_Text_01
        Uninhibitable
        Verbosity  1 
        Priority  6 
        Threshold  1 
        MaxRepeats  0 
        RepeatInterval  1 
        Attitude Normal
        Presentation Default
        Title Prologue_End_Turn_4_Text_01_Title
        Text Prologue_End_Turn_4_Text_01_Text1



;------------------------------------------
AdviceThread Prologue_Assassination_Not_Ordered_Thread
    GameArea Campaign

    Item Prologue_Assassination_Not_Ordered_Text_01
        Uninhibitable
        Verbosity  1 
        Priority  6 
        Threshold  1 
        MaxRepeats  0 
        RepeatInterval  1 
        Attitude Normal
        Presentation Default
        Title Prologue_Assassination_Not_Ordered_Text_01_Title
        Text Prologue_Assassination_Not_Ordered_Text_01_Text1



;------------------------------------------
AdviceThread Prologue_Caen_Under_Siege_Thread
    GameArea Campaign

    Item Prologue_Caen_Under_Siege_Text_01
        Uninhibitable
        Verbosity  1 
        Priority  6 
        Threshold  1 
        MaxRepeats  0 
        RepeatInterval  1 
        Attitude Concerned
        Presentation Default
        Title Prologue_Caen_Under_Siege_Text_01_Title
        Text Prologue_Caen_Under_Siege_Text_01_Text1



;------------------------------------------
AdviceThread Prologue_Attack_Nottingham_Thread
    GameArea Campaign

    Item Prologue_Attack_Nottingham_Text_01
        Uninhibitable
        Verbosity  1 
        Priority  6 
        Threshold  1 
        MaxRepeats  0 
        RepeatInterval  1 
        Attitude Normal
        Presentation Default
        Title Prologue_Attack_Nottingham_Text_01_Title
        Text Prologue_Attack_Nottingham_Text_01_Text1



;------------------------------------------
AdviceThread Prologue_Castle_Basics_Thread
    GameArea Campaign

    Item Prologue_Castle_Basics_Text_01
        Uninhibitable
        Verbosity  1 
        Priority  6 
        Threshold  1 
        MaxRepeats  0 
        RepeatInterval  1 
        Attitude Normal
        Presentation Default
        Title Prologue_Castle_Basics_Text_01_Title
        Text Prologue_Castle_Basics_Text_01_Text1



;------------------------------------------
AdviceThread Prologue_Building_Browser_Thread
    GameArea Campaign

    Item Prologue_Building_Browser_Text_01
        Uninhibitable
        Verbosity  1 
        Priority  6 
        Threshold  1 
        MaxRepeats  0 
        RepeatInterval  1 
        Attitude Normal
        Presentation Default
        Title Prologue_Building_Browser_Text_01_Title
        Text Prologue_Building_Browser_Text_01_Text1



;------------------------------------------
AdviceThread Prologue_Open_Caen_Thread
    GameArea Campaign

    Item Prologue_Open_Caen_Text_01
        Uninhibitable
        Verbosity  1 
        Priority  6 
        Threshold  1 
        MaxRepeats  0 
        RepeatInterval  1 
        Attitude Normal
        Presentation Default
        Title Prologue_Open_Caen_Text_01_Title
        Text Prologue_Open_Caen_Text_01_Text1



;------------------------------------------
AdviceThread Prologue_Faction_Summary_Thread
    GameArea Campaign

    Item Prologue_Faction_Summary_Text_01
        Uninhibitable
        Verbosity  1 
        Priority  6 
        Threshold  1 
        MaxRepeats  0 
        RepeatInterval  1 
        Attitude Normal
        Presentation Default
        Title Prologue_Faction_Summary_Text_01_Title
        Text Prologue_Faction_Summary_Text_01_Text1



;------------------------------------------
AdviceThread Prologue_Faction_Overview_Thread
    GameArea Campaign

    Item Prologue_Faction_Overview_Text_01
        Uninhibitable
        Verbosity  1 
        Priority  6 
        Threshold  1 
        MaxRepeats  0 
        RepeatInterval  1 
        Attitude Normal
        Presentation Default
        Title Prologue_Faction_Overview_Text_01_Title
        Text Prologue_Faction_Overview_Text_01_Text1



;------------------------------------------
AdviceThread Prologue_Faction_Finances_Thread
    GameArea Campaign

    Item Prologue_Faction_Finances_Text_01
        Uninhibitable
        Verbosity  1 
        Priority  6 
        Threshold  1 
        MaxRepeats  0 
        RepeatInterval  1 
        Attitude Normal
        Presentation Default
        Title Prologue_Faction_Finances_Text_01_Title
        Text Prologue_Faction_Finances_Text_01_Text1



;------------------------------------------
AdviceThread Prologue_Diplomatic_Standing_Thread
    GameArea Campaign

    Item Prologue_Diplomatic_Standing_Text_01
        Uninhibitable
        Verbosity  1 
        Priority  6 
        Threshold  1 
        MaxRepeats  0 
        RepeatInterval  1 
        Attitude Normal
        Presentation Default
        Title Prologue_Diplomatic_Standing_Text_01_Title
        Text Prologue_Diplomatic_Standing_Text_01_Text1



;------------------------------------------
AdviceThread Prologue_Missions_Scroll_Thread
    GameArea Campaign

    Item Prologue_Missions_Scroll_Text_01
        Uninhibitable
        Verbosity  1 
        Priority  6 
        Threshold  1 
        MaxRepeats  0 
        RepeatInterval  1 
        Attitude Normal
        Presentation Default
        Title Prologue_Missions_Scroll_Text_01_Title
        Text Prologue_Missions_Scroll_Text_01_Text1



;------------------------------------------
AdviceThread Prologue_Pope_Scroll_Thread
    GameArea Campaign

    Item Prologue_Pope_Scroll_Text_01
        Uninhibitable
        Verbosity  1 
        Priority  6 
        Threshold  1 
        MaxRepeats  0 
        RepeatInterval  1 
        Attitude Normal
        Presentation Default
        Title Prologue_Pope_Scroll_Text_01_Title
        Text Prologue_Pope_Scroll_Text_01_Text1



;------------------------------------------
AdviceThread Prologue_You_Win_Thread
    GameArea Campaign

    Item Prologue_You_Win_Text_01
        Uninhibitable
        Verbosity  1 
        Priority  6 
        Threshold  1 
        MaxRepeats  0 
        RepeatInterval  1 
        Attitude Excited
        Presentation Default
        Title Prologue_You_Win_Text_01_Title
        Text Prologue_You_Win_Text_01_Text1



;------------------------------------------
AdviceThread Prologue_London_Lost_Thread
    GameArea Campaign

    Item Prologue_London_Lost_Text_01
        Uninhibitable
        Verbosity  1 
        Priority  6 
        Threshold  1 
        MaxRepeats  0 
        RepeatInterval  1 
        Attitude Concerned
        Presentation Default
        Title Prologue_London_Lost_Text_01_Title
        Text Prologue_London_Lost_Text_01_Text1



;------------------------------------------
AdviceThread Prologue_Campaign_Turns_Thread
    GameArea Campaign

    Item Prologue_Campaign_Turns_Text_01
        Uninhibitable
        Verbosity  1 
        Priority  6 
        Threshold  1 
        MaxRepeats  0 
        RepeatInterval  1 
        Attitude Normal
        Presentation Default
        Title Prologue_Campaign_Turns_Text_01_Title
        Text Prologue_Campaign_Turns_Text_01_Text1



;------------------------------------------
AdviceThread Prologue_Rufus_Out_Of_Moves_Thread
    GameArea Campaign

    Item Prologue_Rufus_Out_Of_Moves_Text_01
        Uninhibitable
        Verbosity  1 
        Priority  6 
        Threshold  1 
        MaxRepeats  0 
        RepeatInterval  1 
        Attitude Normal
        Presentation Default
        Title Prologue_Rufus_Out_Of_Moves_Text_01_Title
        Text Prologue_Rufus_Out_Of_Moves_Text_01_Text1



;------------------------------------------
AdviceThread Prologue_William_Out_Of_Moves_Thread
    GameArea Campaign

    Item Prologue_William_Out_Of_Moves_Text_01
        Uninhibitable
        Verbosity  1 
        Priority  6 
        Threshold  1 
        MaxRepeats  0 
        RepeatInterval  1 
        Attitude Normal
        Presentation Default
        Title Prologue_William_Out_Of_Moves_Text_01_Title
        Text Prologue_William_Out_Of_Moves_Text_01_Text1



;------------------------------------------
AdviceThread Prologue_Nottingham_Lost_Thread
    GameArea Campaign

    Item Prologue_Nottingham_Lost_Text_01
        Uninhibitable
        Verbosity  1 
        Priority  6 
        Threshold  1 
        MaxRepeats  0 
        RepeatInterval  1 
        Attitude Concerned
        Presentation Default
        Title Prologue_Nottingham_Lost_Text_01_Title
        Text Prologue_Nottingham_Lost_Text_01_Text1



;------------------------------------------
AdviceThread Prologue_Hastings_Battle_Advisor_Thread
    GameArea Battle

    Item Prologue_Hastings_Battle_Advisor_Text_01
        Uninhibitable
        Verbosity  1 
        Priority  6 
        Threshold  1 
        MaxRepeats  0 
        RepeatInterval  1 
        Attitude Excited
        Presentation Default
        Title Prologue_Hastings_Battle_Advisor_Text_01_Title
        Text Prologue_Hastings_Battle_Advisor_Text_01_Text1



;------------------------------------------
AdviceThread Prologue_Hastings_Wait_Here_Thread
    GameArea Battle

    Item Prologue_Hastings_Wait_Here_Text_01
        Uninhibitable
        Verbosity  1 
        Priority  6 
        Threshold  1 
        MaxRepeats  0 
        RepeatInterval  1 
        Attitude Normal
        Presentation Default
        Title Prologue_Hastings_Wait_Here_Text_01_Title
        Text Prologue_Hastings_Wait_Here_Text_01_Text1



;------------------------------------------
AdviceThread Prologue_Hastings_Select_Rufus_Thread
    GameArea Battle

    Item Prologue_Hastings_Select_Rufus_Text_01
        Uninhibitable
        Verbosity  1 
        Priority  6 
        Threshold  1 
        MaxRepeats  0 
        RepeatInterval  1 
        Attitude Normal
        Presentation Default
        Title Prologue_Hastings_Select_Rufus_Text_01_Title
        Text Prologue_Hastings_Select_Rufus_Text_01_Text1



;------------------------------------------
AdviceThread Prologue_Hastings_Generals_Thread
    GameArea Battle

    Item Prologue_Hastings_Generals_Text_01
        Uninhibitable
        Verbosity  1 
        Priority  6 
        Threshold  1 
        MaxRepeats  0 
        RepeatInterval  1 
        Attitude Normal
        Presentation Default
        Title Prologue_Hastings_Generals_Text_01_Title
        Text Prologue_Hastings_Generals_Text_01_Text1



;------------------------------------------
AdviceThread Prologue_Hastings_Move_General_Thread
    GameArea Battle

    Item Prologue_Hastings_Move_General_Text_01
        Uninhibitable
        Verbosity  1 
        Priority  6 
        Threshold  1 
        MaxRepeats  0 
        RepeatInterval  1 
        Attitude Normal
        Presentation Default
        Title Prologue_Hastings_Move_General_Text_01_Title
        Text Prologue_Hastings_Move_General_Text_01_Text1



;------------------------------------------
AdviceThread Prologue_Hastings_Select_Cavalry_Card_Thread
    GameArea Battle

    Item Prologue_Hastings_Select_Cavalry_Card_Text_01
        Uninhibitable
        Verbosity  1 
        Priority  6 
        Threshold  1 
        MaxRepeats  0 
        RepeatInterval  1 
        Attitude Normal
        Presentation Default
        Title Prologue_Hastings_Select_Cavalry_Card_Text_01_Title
        Text Prologue_Hastings_Select_Cavalry_Card_Text_01_Text1



;------------------------------------------
AdviceThread Prologue_Hastings_Double_Click_To_Pan_Thread
    GameArea Battle

    Item Prologue_Hastings_Double_Click_To_Pan_Text_01
        Uninhibitable
        Verbosity  1 
        Priority  6 
        Threshold  1 
        MaxRepeats  0 
        RepeatInterval  1 
        Attitude Normal
        Presentation Default
        Title Prologue_Hastings_Double_Click_To_Pan_Text_01_Title
        Text Prologue_Hastings_Double_Click_To_Pan_Text_01_Text1



;------------------------------------------
AdviceThread Prologue_Hastings_Battle_HUD_Thread
    GameArea Battle

    Item Prologue_Hastings_Battle_HUD_Text_01
        Uninhibitable
        Verbosity  1 
        Priority  6 
        Threshold  1 
        MaxRepeats  0 
        RepeatInterval  1 
        Attitude Normal
        Presentation Default
        Title Prologue_Hastings_Battle_HUD_Text_01_Title
        Text Prologue_Hastings_Battle_HUD_Text_01_Text1



;------------------------------------------
AdviceThread Prologue_Hastings_Cavalry_Run_Thread
    GameArea Battle

    Item Prologue_Hastings_Cavalry_Run_Text_01
        Uninhibitable
        Verbosity  1 
        Priority  6 
        Threshold  1 
        MaxRepeats  0 
        RepeatInterval  1 
        Attitude Normal
        Presentation Default
        Title Prologue_Hastings_Cavalry_Run_Text_01_Title
        Text Prologue_Hastings_Cavalry_Run_Text_01_Text1



;------------------------------------------
AdviceThread Prologue_Hastings_Walking_Is_Better_Thread
    GameArea Battle

    Item Prologue_Hastings_Walking_Is_Better_Text_01
        Uninhibitable
        Verbosity  1 
        Priority  6 
        Threshold  1 
        MaxRepeats  0 
        RepeatInterval  1 
        Attitude Normal
        Presentation Default
        Title Prologue_Hastings_Walking_Is_Better_Text_01_Title
        Text Prologue_Hastings_Walking_Is_Better_Text_01_Text1



;------------------------------------------
AdviceThread Prologue_Hastings_Change_Unit_Speed_Thread
    GameArea Battle

    Item Prologue_Hastings_Change_Unit_Speed_Text_01
        Uninhibitable
        Verbosity  1 
        Priority  6 
        Threshold  1 
        MaxRepeats  0 
        RepeatInterval  1 
        Attitude Normal
        Presentation Default
        Title Prologue_Hastings_Change_Unit_Speed_Text_01_Title
        Text Prologue_Hastings_Change_Unit_Speed_Text_01_Text1



;------------------------------------------
AdviceThread Prologue_Hastings_Halt_Orders_Thread
    GameArea Battle

    Item Prologue_Hastings_Halt_Orders_Text_01
        Uninhibitable
        Verbosity  1 
        Priority  6 
        Threshold  1 
        MaxRepeats  0 
        RepeatInterval  1 
        Attitude Normal
        Presentation Default
        Title Prologue_Hastings_Halt_Orders_Text_01_Title
        Text Prologue_Hastings_Halt_Orders_Text_01_Text1



;------------------------------------------
AdviceThread Prologue_Hastings_Select_All_Units_Thread
    GameArea Battle

    Item Prologue_Hastings_Select_All_Units_Text_01
        Uninhibitable
        Verbosity  1 
        Priority  6 
        Threshold  1 
        MaxRepeats  0 
        RepeatInterval  1 
        Attitude Normal
        Presentation Default
        Title Prologue_Hastings_Select_All_Units_Text_01_Title
        Text Prologue_Hastings_Select_All_Units_Text_01_Text1



;------------------------------------------
AdviceThread Prologue_Hastings_Move_All_Units_Thread
    GameArea Battle

    Item Prologue_Hastings_Move_All_Units_Text_01
        Uninhibitable
        Verbosity  1 
        Priority  6 
        Threshold  1 
        MaxRepeats  0 
        RepeatInterval  1 
        Attitude Normal
        Presentation Default
        Title Prologue_Hastings_Move_All_Units_Text_01_Title
        Text Prologue_Hastings_Move_All_Units_Text_01_Text1



;------------------------------------------
AdviceThread Prologue_Hastings_Deselect_All_Units_Thread
    GameArea Battle

    Item Prologue_Hastings_Deselect_All_Units_Text_01
        Uninhibitable
        Verbosity  1 
        Priority  6 
        Threshold  1 
        MaxRepeats  0 
        RepeatInterval  1 
        Attitude Normal
        Presentation Default
        Title Prologue_Hastings_Deselect_All_Units_Text_01_Title
        Text Prologue_Hastings_Deselect_All_Units_Text_01_Text1



;------------------------------------------
AdviceThread Prologue_Hastings_Banners_Thread
    GameArea Battle

    Item Prologue_Hastings_Banners_Text_01
        Uninhibitable
        Verbosity  1 
        Priority  6 
        Threshold  1 
        MaxRepeats  0 
        RepeatInterval  1 
        Attitude Normal
        Presentation Default
        Title Prologue_Hastings_Banners_Text_01_Title
        Text Prologue_Hastings_Banners_Text_01_Text1



;------------------------------------------
AdviceThread Prologue_Hastings_Saxon_Reinforcements_Thread
    GameArea Battle

    Item Prologue_Hastings_Saxon_Reinforcements_Text_01
        Uninhibitable
        Verbosity  1 
        Priority  6 
        Threshold  1 
        MaxRepeats  0 
        RepeatInterval  1 
        Attitude Concerned
        Presentation Default
        Title Prologue_Hastings_Saxon_Reinforcements_Text_01_Title
        Text Prologue_Hastings_Saxon_Reinforcements_Text_01_Text1



;------------------------------------------
AdviceThread Prologue_Hastings_Select_Archers_Thread
    GameArea Battle

    Item Prologue_Hastings_Select_Archers_Text_01
        Uninhibitable
        Verbosity  1 
        Priority  6 
        Threshold  1 
        MaxRepeats  0 
        RepeatInterval  1 
        Attitude Normal
        Presentation Default
        Title Prologue_Hastings_Select_Archers_Text_01_Title
        Text Prologue_Hastings_Select_Archers_Text_01_Text1



;------------------------------------------
AdviceThread Prologue_Hastings_Attack_With_Archers_Thread
    GameArea Battle

    Item Prologue_Hastings_Attack_With_Archers_Text_01
        Uninhibitable
        Verbosity  1 
        Priority  6 
        Threshold  1 
        MaxRepeats  0 
        RepeatInterval  1 
        Attitude Normal
        Presentation Default
        Title Prologue_Hastings_Attack_With_Archers_Text_01_Title
        Text Prologue_Hastings_Attack_With_Archers_Text_01_Text1



;------------------------------------------
AdviceThread Prologue_Hastings_Friendly_Fire_Thread
    GameArea Battle

    Item Prologue_Hastings_Friendly_Fire_Text_01
        Uninhibitable
        Verbosity  1 
        Priority  6 
        Threshold  1 
        MaxRepeats  0 
        RepeatInterval  1 
        Attitude Normal
        Presentation Default
        Title Prologue_Hastings_Friendly_Fire_Text_01_Title
        Text Prologue_Hastings_Friendly_Fire_Text_01_Text1



;------------------------------------------
AdviceThread Prologue_Hastings_Attack_With_Infantry_Thread
    GameArea Battle

    Item Prologue_Hastings_Attack_With_Infantry_Text_01
        Uninhibitable
        Verbosity  1 
        Priority  6 
        Threshold  1 
        MaxRepeats  0 
        RepeatInterval  1 
        Attitude Normal
        Presentation Default
        Title Prologue_Hastings_Attack_With_Infantry_Text_01_Title
        Text Prologue_Hastings_Attack_With_Infantry_Text_01_Text1



;------------------------------------------
AdviceThread Prologue_Hastings_Zoom_On_Action_Thread
    GameArea Battle

    Item Prologue_Hastings_Zoom_On_Action_Text_01
        Uninhibitable
        Verbosity  1 
        Priority  6 
        Threshold  1 
        MaxRepeats  0 
        RepeatInterval  1 
        Attitude Normal
        Presentation Default
        Title Prologue_Hastings_Zoom_On_Action_Text_01_Title
        Text Prologue_Hastings_Zoom_On_Action_Text_01_Text1



;------------------------------------------
AdviceThread Prologue_Hastings_Run_Down_With_Cavalry_Thread
    GameArea Battle

    Item Prologue_Hastings_Run_Down_With_Cavalry_Text_01
        Uninhibitable
        Verbosity  1 
        Priority  6 
        Threshold  1 
        MaxRepeats  0 
        RepeatInterval  1 
        Attitude Normal
        Presentation Default
        Title Prologue_Hastings_Run_Down_With_Cavalry_Text_01_Title
        Text Prologue_Hastings_Run_Down_With_Cavalry_Text_01_Text1



;------------------------------------------
AdviceThread Prologue_Hastings_Unit_Status_Thread
    GameArea Battle

    Item Prologue_Hastings_Unit_Status_Text_01
        Uninhibitable
        Verbosity  1 
        Priority  6 
        Threshold  1 
        MaxRepeats  0 
        RepeatInterval  1 
        Attitude Normal
        Presentation Default
        Title Prologue_Hastings_Unit_Status_Text_01_Title
        Text Prologue_Hastings_Unit_Status_Text_01_Text1



;------------------------------------------
AdviceThread Prologue_Hastings_Called_Into_Main_Battle_Thread
    GameArea Battle

    Item Prologue_Hastings_Called_Into_Main_Battle_Text_01
        Uninhibitable
        Verbosity  1 
        Priority  6 
        Threshold  1 
        MaxRepeats  0 
        RepeatInterval  1 
        Attitude Normal
        Presentation Default
        Title Prologue_Hastings_Called_Into_Main_Battle_Text_01_Title
        Text Prologue_Hastings_Called_Into_Main_Battle_Text_01_Text1



;------------------------------------------
AdviceThread Prologue_Hastings_Cross_The_Bridge_Thread
    GameArea Battle

    Item Prologue_Hastings_Cross_The_Bridge_Text_01
        Uninhibitable
        Verbosity  1 
        Priority  6 
        Threshold  1 
        MaxRepeats  0 
        RepeatInterval  1 
        Attitude Normal
        Presentation Default
        Title Prologue_Hastings_Cross_The_Bridge_Text_01_Title
        Text Prologue_Hastings_Cross_The_Bridge_Text_01_Text1



;------------------------------------------
AdviceThread Prologue_Hastings_Move_Into_Position_Thread
    GameArea Battle

    Item Prologue_Hastings_Move_Into_Position_Text_01
        Uninhibitable
        Verbosity  1 
        Priority  6 
        Threshold  1 
        MaxRepeats  0 
        RepeatInterval  1 
        Attitude Normal
        Presentation Default
        Title Prologue_Hastings_Move_Into_Position_Text_01_Title
        Text Prologue_Hastings_Move_Into_Position_Text_01_Text1



;------------------------------------------
AdviceThread Prologue_Hastings_Move_Into_Position_2_Thread
    GameArea Battle

    Item Prologue_Hastings_Move_Into_Position_2_Text_01
        Uninhibitable
        Verbosity  1 
        Priority  6 
        Threshold  1 
        MaxRepeats  0 
        RepeatInterval  1 
        Attitude Normal
        Presentation Default
        Title Prologue_Hastings_Move_Into_Position_2_Text_01_Title
        Text Prologue_Hastings_Move_Into_Position_2_Text_01_Text1



;------------------------------------------
AdviceThread Prologue_Hastings_Normans_Flee_Thread
    GameArea Battle

    Item Prologue_Hastings_Normans_Flee_Text_01
        Uninhibitable
        Verbosity  1 
        Priority  6 
        Threshold  1 
        MaxRepeats  0 
        RepeatInterval  1 
        Attitude Normal
        Presentation Default
        Title Prologue_Hastings_Normans_Flee_Text_01_Title
        Text Prologue_Hastings_Normans_Flee_Text_01_Text1



;------------------------------------------
AdviceThread Prologue_Hastings_Peasants_Charging_Thread
    GameArea Battle

    Item Prologue_Hastings_Peasants_Charging_Text_01
        Uninhibitable
        Verbosity  1 
        Priority  6 
        Threshold  1 
        MaxRepeats  0 
        RepeatInterval  1 
        Attitude Normal
        Presentation Default
        Title Prologue_Hastings_Peasants_Charging_Text_01_Title
        Text Prologue_Hastings_Peasants_Charging_Text_01_Text1



;------------------------------------------
AdviceThread Prologue_Hastings_Fire_On_Peasants_Thread
    GameArea Battle

    Item Prologue_Hastings_Fire_On_Peasants_Text_01
        Uninhibitable
        Verbosity  1 
        Priority  6 
        Threshold  1 
        MaxRepeats  0 
        RepeatInterval  1 
        Attitude Excited
        Presentation Default
        Title Prologue_Hastings_Fire_On_Peasants_Text_01_Title
        Text Prologue_Hastings_Fire_On_Peasants_Text_01_Text1



;------------------------------------------
AdviceThread Prologue_Hastings_Using_Archers_Thread
    GameArea Battle

    Item Prologue_Hastings_Using_Archers_Text_01
        Uninhibitable
        Verbosity  1 
        Priority  6 
        Threshold  1 
        MaxRepeats  0 
        RepeatInterval  1 
        Attitude Normal
        Presentation Default
        Title Prologue_Hastings_Using_Archers_Text_01_Title
        Text Prologue_Hastings_Using_Archers_Text_01_Text1



;------------------------------------------
AdviceThread Prologue_Hastings_Infantry_Attack_Peasants_Thread
    GameArea Battle

    Item Prologue_Hastings_Infantry_Attack_Peasants_Text_01
        Uninhibitable
        Verbosity  1 
        Priority  6 
        Threshold  1 
        MaxRepeats  0 
        RepeatInterval  1 
        Attitude Normal
        Presentation Default
        Title Prologue_Hastings_Infantry_Attack_Peasants_Text_01_Title
        Text Prologue_Hastings_Infantry_Attack_Peasants_Text_01_Text1



;------------------------------------------
AdviceThread Prologue_Hastings_Attack_Shield_Wall_Thread
    GameArea Battle

    Item Prologue_Hastings_Attack_Shield_Wall_Text_01
        Uninhibitable
        Verbosity  1 
        Priority  6 
        Threshold  1 
        MaxRepeats  0 
        RepeatInterval  1 
        Attitude Excited
        Presentation Default
        Title Prologue_Hastings_Attack_Shield_Wall_Text_01_Title
        Text Prologue_Hastings_Attack_Shield_Wall_Text_01_Text1



;------------------------------------------
AdviceThread Prologue_Hastings_King_Harold_Dead_Thread
    GameArea Battle

    Item Prologue_Hastings_King_Harold_Dead_Text_01
        Uninhibitable
        Verbosity  1 
        Priority  6 
        Threshold  1 
        MaxRepeats  0 
        RepeatInterval  1 
        Attitude Excited
        Presentation Default
        Title Prologue_Hastings_King_Harold_Dead_Text_01_Title
        Text Prologue_Hastings_King_Harold_Dead_Text_01_Text1



;------------------------------------------
AdviceThread Prologue_Hastings_Chase_Routers_Thread
    GameArea Battle

    Item Prologue_Hastings_Chase_Routers_Text_01
        Uninhibitable
        Verbosity  1 
        Priority  6 
        Threshold  1 
        MaxRepeats  0 
        RepeatInterval  1 
        Attitude Normal
        Presentation Default
        Title Prologue_Hastings_Chase_Routers_Text_01_Title
        Text Prologue_Hastings_Chase_Routers_Text_01_Text1



;------------------------------------------
AdviceThread Prologue_Hastings_Move_Into_Position_3_Thread
    GameArea Battle

    Item Prologue_Hastings_Move_Into_Position_3_Text_01
        Uninhibitable
        Verbosity  1 
        Priority  6 
        Threshold  1 
        MaxRepeats  0 
        RepeatInterval  1 
        Attitude Normal
        Presentation Default
        Title Prologue_Hastings_Move_Into_Position_3_Text_01_Title
        Text Prologue_Hastings_Move_Into_Position_3_Text_01_Text1



;------------------------------------------
AdviceThread Prologue_Hastings_Battle_Speed_Bridge_Thread
    GameArea Battle

    Item Prologue_Hastings_Battle_Speed_Bridge_Text_01
        Uninhibitable
        Verbosity  1 
        Priority  6 
        Threshold  1 
        MaxRepeats  0 
        RepeatInterval  1 
        Attitude Normal
        Presentation Default
        Title Prologue_Hastings_Battle_Speed_Bridge_Text_01_Title
        Text Prologue_Hastings_Battle_Speed_Bridge_Text_01_Text1



;------------------------------------------
AdviceThread Prologue_Hastings_Battle_Speed_Form_Up_Thread
    GameArea Battle

    Item Prologue_Hastings_Battle_Speed_Form_Up_Text_01
        Uninhibitable
        Verbosity  1 
        Priority  6 
        Threshold  1 
        MaxRepeats  0 
        RepeatInterval  1 
        Attitude Normal
        Presentation Default
        Title Prologue_Hastings_Battle_Speed_Form_Up_Text_01_Title
        Text Prologue_Hastings_Battle_Speed_Form_Up_Text_01_Text1



;------------------------------------------
AdviceThread Prologue_Hastings_Slow_Speed_Thread
    GameArea Battle

    Item Prologue_Hastings_Slow_Speed_Text_01
        Uninhibitable
        Verbosity  1 
        Priority  6 
        Threshold  1 
        MaxRepeats  0 
        RepeatInterval  1 
        Attitude Normal
        Presentation Default
        Title Prologue_Hastings_Slow_Speed_Text_01_Title
        Text Prologue_Hastings_Slow_Speed_Text_01_Text1



;------------------------------------------
AdviceThread Prologue_Hastings_Attack_Huscarls_Thread
    GameArea Battle

    Item Prologue_Hastings_Attack_Huscarls_Text_01
        Uninhibitable
        Verbosity  1 
        Priority  6 
        Threshold  1 
        MaxRepeats  0 
        RepeatInterval  1 
        Attitude Angry
        Presentation Default
        Title Prologue_Hastings_Attack_Huscarls_Text_01_Title
        Text Prologue_Hastings_Attack_Huscarls_Text_01_Text1



;------------------------------------------
AdviceThread Prologue_Hastings_Pause_Game_Thread
    GameArea Battle

    Item Prologue_Hastings_Pause_Game_Text_01
        Uninhibitable
        Verbosity  1 
        Priority  6 
        Threshold  1 
        MaxRepeats  0 
        RepeatInterval  1 
        Attitude Normal
        Presentation Default
        Title Prologue_Hastings_Pause_Game_Text_01_Title
        Text Prologue_Hastings_Pause_Game_Text_01_Text1



;------------------------------------------
AdviceThread Prologue_Hastings_Move_Into_Position_4_Thread
    GameArea Battle

    Item Prologue_Hastings_Move_Into_Position_4_Text_01
        Uninhibitable
        Verbosity  1 
        Priority  6 
        Threshold  1 
        MaxRepeats  0 
        RepeatInterval  1 
        Attitude Normal
        Presentation Default
        Title Prologue_Hastings_Move_Into_Position_4_Text_01_Title
        Text Prologue_Hastings_Move_Into_Position_4_Text_01_Text1



;------------------------------------------
AdviceThread Prologue_Hastings_Post_Battle_Thread
    GameArea Battle

    Item Prologue_Hastings_Post_Battle_Text_01
        Uninhibitable
        Verbosity  1 
        Priority  6 
        Threshold  1 
        MaxRepeats  0 
        RepeatInterval  1 
        Attitude Excited
        Presentation Default
        Title Prologue_Hastings_Post_Battle_Text_01_Title
        Text Prologue_Hastings_Post_Battle_Text_01_Text1



;------------------------------------------
AdviceThread Prologue_Hastings_Quitting_Thread
    GameArea Battle

    Item Prologue_Hastings_Quitting_Text_01
        Uninhibitable
        Verbosity  1 
        Priority  6 
        Threshold  1 
        MaxRepeats  0 
        RepeatInterval  1 
        Attitude Normal
        Presentation Default
        Title Prologue_Hastings_Quitting_Text_01_Title
        Text Prologue_Hastings_Quitting_Text_01_Text1



;------------------------------------------
AdviceThread Prologue_Prisoners_Thread
    GameArea Campaign

    Item Prologue_Prisoners_Text_01
        Uninhibitable
        Verbosity  1 
        Priority  6 
        Threshold  1 
        MaxRepeats  0 
        RepeatInterval  1 
        Attitude Normal
        Presentation Default
        Title Prologue_Prisoners_Text_01_Title
        Text Prologue_Prisoners_Text_01_Text1



;------------------------------------------
AdviceThread Prologue_Hastings_Post_Battle_Demo_Thread
    GameArea Battle

    Item Prologue_Hastings_Post_Battle_Demo_Text_01
        Uninhibitable
        Verbosity  1 
        Priority  6 
        Threshold  1 
        MaxRepeats  0 
        RepeatInterval  1 
        Attitude Excited
        Presentation Default
        Title Prologue_Hastings_Post_Battle_Demo_Text_01_Title
        Text Prologue_Hastings_Post_Battle_Demo_Text_01_Text1



;------------------------------------------
AdviceThread Prologue_Hastings_Tilt_Camera_RTS_Thread
    GameArea Battle

    Item Prologue_Hastings_Tilt_Camera_RTS_Text_01
        Uninhibitable
        Verbosity  1 
        Priority  6 
        Threshold  1 
        MaxRepeats  0 
        RepeatInterval  1 
        Attitude Normal
        Presentation Default
        Title Prologue_Hastings_Tilt_Camera_RTS_Text_01_Title
        Text Prologue_Hastings_Tilt_Camera_RTS_Text_01_Text1



;------------------------------------------
AdviceThread Prologue_Hastings_Click_And_Drag_Thread
    GameArea Battle

    Item Prologue_Hastings_Click_And_Drag_Text_01
        Uninhibitable
        Verbosity  1 
        Priority  6 
        Threshold  1 
        MaxRepeats  0 
        RepeatInterval  1 
        Attitude Normal
        Presentation Default
        Title Prologue_Hastings_Click_And_Drag_Text_01_Title
        Text Prologue_Hastings_Click_And_Drag_Text_01_Text1



;------------------------------------------
AdviceThread Prologue_Hastings_Radar_Thread
    GameArea Battle

    Item Prologue_Hastings_Radar_Text_01
        Uninhibitable
        Verbosity  1 
        Priority  6 
        Threshold  1 
        MaxRepeats  0 
        RepeatInterval  1 
        Attitude Normal
        Presentation Default
        Title Prologue_Hastings_Radar_Text_01_Title
        Text Prologue_Hastings_Radar_Text_01_Text1



;------------------------------------------
AdviceThread Prologue_Hastings_Archers_Firing_Thread
    GameArea Battle

    Item Prologue_Hastings_Archers_Firing_Text_01
        Uninhibitable
        Verbosity  1 
        Priority  6 
        Threshold  1 
        MaxRepeats  0 
        RepeatInterval  1 
        Attitude Normal
        Presentation Default
        Title Prologue_Hastings_Archers_Firing_Text_01_Title
        Text Prologue_Hastings_Archers_Firing_Text_01_Text1



;------------------------------------------
AdviceThread Prologue_Hastings_Move_View_RTS_Thread
    GameArea Battle

    Item Prologue_Hastings_Move_View_RTS_Text_01
        Uninhibitable
        Verbosity  1 
        Priority  6 
        Threshold  1 
        MaxRepeats  0 
        RepeatInterval  1 
        Attitude Normal
        Presentation Default
        Title Prologue_Hastings_Move_View_RTS_Text_01_Title
        Text Prologue_Hastings_Move_View_RTS_Text_01_Text1



;------------------------------------------
AdviceThread Prologue_London_Intro_Thread
    GameArea Battle

    Item Prologue_London_Intro_Text_01
        Uninhibitable
        Verbosity  1 
        Priority  6 
        Threshold  1 
        MaxRepeats  0 
        RepeatInterval  1 
        Attitude Normal
        Presentation Default
        Title Prologue_London_Intro_Text_01_Title
        Text Prologue_London_Intro_Text_01_Text1



;------------------------------------------
AdviceThread Prologue_London_Start_Deployment_Intro_Thread
    GameArea Battle

    Item Prologue_London_Start_Deployment_Intro_Text_01
        Uninhibitable
        Verbosity  1 
        Priority  6 
        Threshold  1 
        MaxRepeats  0 
        RepeatInterval  1 
        Attitude Normal
        Presentation Default
        Title Prologue_London_Start_Deployment_Intro_Text_01_Title
        Text Prologue_London_Start_Deployment_Intro_Text_01_Text1



;------------------------------------------
AdviceThread Prologue_London_Deployment_Thread
    GameArea Battle

    Item Prologue_London_Deployment_Text_01
        Uninhibitable
        Verbosity  1 
        Priority  6 
        Threshold  1 
        MaxRepeats  0 
        RepeatInterval  1 
        Attitude Normal
        Presentation Default
        Title Prologue_London_Deployment_Text_01_Title
        Text Prologue_London_Deployment_Text_01_Text1



;------------------------------------------
AdviceThread Prologue_London_Deployment_3_Thread
    GameArea Battle

    Item Prologue_London_Deployment_3_Text_01
        Uninhibitable
        Verbosity  1 
        Priority  6 
        Threshold  1 
        MaxRepeats  0 
        RepeatInterval  1 
        Attitude Normal
        Presentation Default
        Title Prologue_London_Deployment_3_Text_01_Title
        Text Prologue_London_Deployment_3_Text_01_Text1



;------------------------------------------
AdviceThread Prologue_London_Using_Ram_Thread
    GameArea Battle

    Item Prologue_London_Using_Ram_Text_01
        Uninhibitable
        Verbosity  1 
        Priority  6 
        Threshold  1 
        MaxRepeats  0 
        RepeatInterval  1 
        Attitude Normal
        Presentation Default
        Title Prologue_London_Using_Ram_Text_01_Title
        Text Prologue_London_Using_Ram_Text_01_Text1



;------------------------------------------
AdviceThread Prologue_London_Take_Plaza_Thread
    GameArea Battle

    Item Prologue_London_Take_Plaza_Text_01
        Uninhibitable
        Verbosity  1 
        Priority  6 
        Threshold  1 
        MaxRepeats  0 
        RepeatInterval  1 
        Attitude Excited
        Presentation Default
        Title Prologue_London_Take_Plaza_Text_01_Title
        Text Prologue_London_Take_Plaza_Text_01_Text1



;------------------------------------------
AdviceThread Prologue_London_Sieging_A_City_Thread
    GameArea Battle

    Item Prologue_London_Sieging_A_City_Text_01
        Uninhibitable
        Verbosity  1 
        Priority  6 
        Threshold  1 
        MaxRepeats  0 
        RepeatInterval  1 
        Attitude Normal
        Presentation Default
        Title Prologue_London_Sieging_A_City_Text_01_Title
        Text Prologue_London_Sieging_A_City_Text_01_Text1



;------------------------------------------
AdviceThread Prologue_Nottingham_Intro_Thread
    GameArea Battle

    Item Prologue_Nottingham_Intro_Text_01
        Uninhibitable
        Verbosity  1 
        Priority  6 
        Threshold  1 
        MaxRepeats  0 
        RepeatInterval  1 
        Attitude Excited
        Presentation Default
        Title Prologue_Nottingham_Intro_Text_01_Title
        Text Prologue_Nottingham_Intro_Text_01_Text1



;------------------------------------------
AdviceThread Prologue_Nottingham_Deployment_Thread
    GameArea Battle

    Item Prologue_Nottingham_Deployment_Text_01
        Uninhibitable
        Verbosity  1 
        Priority  6 
        Threshold  1 
        MaxRepeats  0 
        RepeatInterval  1 
        Attitude Excited
        Presentation Default
        Title Prologue_Nottingham_Deployment_Text_01_Title
        Text Prologue_Nottingham_Deployment_Text_01_Text1



;------------------------------------------
AdviceThread Prologue_Nottingham_Deployment1_Thread
    GameArea Battle

    Item Prologue_Nottingham_Deployment1_Text_01
        Uninhibitable
        Verbosity  1 
        Priority  6 
        Threshold  1 
        MaxRepeats  0 
        RepeatInterval  1 
        Attitude Excited
        Presentation Default
        Title Prologue_Nottingham_Deployment1_Text_01_Title
        Text Prologue_Nottingham_Deployment1_Text_01_Text1



;------------------------------------------
AdviceThread Prologue_Nottingham_Deployment2_Thread
    GameArea Battle

    Item Prologue_Nottingham_Deployment2_Text_01
        Uninhibitable
        Verbosity  1 
        Priority  6 
        Threshold  1 
        MaxRepeats  0 
        RepeatInterval  1 
        Attitude Excited
        Presentation Default
        Title Prologue_Nottingham_Deployment2_Text_01_Title
        Text Prologue_Nottingham_Deployment2_Text_01_Text1



;------------------------------------------
AdviceThread Prologue_Nottingham_Deployment3_Thread
    GameArea Battle

    Item Prologue_Nottingham_Deployment3_Text_01
        Uninhibitable
        Verbosity  1 
        Priority  6 
        Threshold  1 
        MaxRepeats  0 
        RepeatInterval  1 
        Attitude Excited
        Presentation Default
        Title Prologue_Nottingham_Deployment3_Text_01_Title
        Text Prologue_Nottingham_Deployment3_Text_01_Text1



;------------------------------------------
AdviceThread Prologue_Nottingham_Draw_Fire_Thread
    GameArea Battle

    Item Prologue_Nottingham_Draw_Fire_Text_01
        Uninhibitable
        Verbosity  1 
        Priority  6 
        Threshold  1 
        MaxRepeats  0 
        RepeatInterval  1 
        Attitude Excited
        Presentation Default
        Title Prologue_Nottingham_Draw_Fire_Text_01_Title
        Text Prologue_Nottingham_Draw_Fire_Text_01_Text1



;------------------------------------------
AdviceThread Prologue_Nottingham_Catapult_Attack_Thread
    GameArea Battle

    Item Prologue_Nottingham_Catapult_Attack_Text_01
        Uninhibitable
        Verbosity  1 
        Priority  6 
        Threshold  1 
        MaxRepeats  0 
        RepeatInterval  1 
        Attitude Excited
        Presentation Default
        Title Prologue_Nottingham_Catapult_Attack_Text_01_Title
        Text Prologue_Nottingham_Catapult_Attack_Text_01_Text1



;------------------------------------------
AdviceThread Prologue_Nottingham_Storm_Castle_Thread
    GameArea Battle

    Item Prologue_Nottingham_Storm_Castle_Text_01
        Uninhibitable
        Verbosity  1 
        Priority  6 
        Threshold  1 
        MaxRepeats  0 
        RepeatInterval  1 
        Attitude Excited
        Presentation Default
        Title Prologue_Nottingham_Storm_Castle_Text_01_Title
        Text Prologue_Nottingham_Storm_Castle_Text_01_Text1



;------------------------------------------
AdviceThread Prologue_Nottingham_Dominate_The_Plaza_Thread
    GameArea Battle

    Item Prologue_Nottingham_Dominate_The_Plaza_Text_01
        Uninhibitable
        Verbosity  1 
        Priority  6 
        Threshold  1 
        MaxRepeats  0 
        RepeatInterval  1 
        Attitude Excited
        Presentation Default
        Title Prologue_Nottingham_Dominate_The_Plaza_Text_01_Title
        Text Prologue_Nottingham_Dominate_The_Plaza_Text_01_Text1



